"인덱스키","제목","내용","링크2","링크 히트수","링크 히트수","등록일","업데이트일"
"127","2013 서울예술교육페어 - 속닥속닥 책다방","2013 서울예술교육페어 - 속닥속닥 책다방  일시 : 2013.1.17(목)~19(토) 장소 : 서울시청 시민청 B2_동그라미방  내용 시민청 내의 동그라미 방이 책다방으로 변신하였습니다. 책다방에서는 서울문화재단에서 발간한 예술교육관련 도서 및 어린이와 청소년들이 책을 통해 교과에 재미있게 접근할 수 있는 교과연계도서 250여 권을 보실 수 있었습니다. 또한 눈으로만 읽는 책이 아닌 오감으로 느끼는 '책공연'과 예술교육의 가치를 일깨워주는 영화를 상영했습니다. '속닥속닥 책다방'은 참가하신 모든 분들이 자유롭게 책을 열람하거나 영화를 관람하며 휴식을 취할 수 있는 편안한 장소입니다.","","0","0","2012-12-02 00:04:00.0","2013-02-04 11:12:07"
"133","2013 서울예술교육페어 - 프로젝트 그룹 옆[엽]","2013 서울예술교육페어 - 프로젝트 그룹 옆[엽] <이윤경 이은구 작가와 함께하는 공간드로잉>  일시 : 2013.1.17(목) 오전 11시 1.18(금)~19(토) 오후 2시 4시 장소 : 서울시청 시민청 B2_이벤트홀  내용 모든 벽 유리창 건물의 실내외 공간을 캔버스로 사용합니다. 라인테이프를 이용하여 현실속의 공간에 또 다른 가상공간을 만들어냅니다. 이러한 공간구성은 관객들이 참여하여 완성되도록 고안되었습니다. 즉 참가자가 객체가 아닌 작품의 주체가 되어 작가와 함께 소통하는 새로운 시도이며 옆의 작업은 작가와 함께 참여하는 참여형 미술로 실재의 공간속에서 다른 공간에 들어와 있는 것 같은 유쾌하고 색다른 경험을 하게 됩니다.","","0","0","2012-12-02 00:04:00.0","2013-02-04 11:37:49"
"132","2013 서울예술교육페어 - 연계행사","2013 서울예술교육페어 - 연계행사 지역문화예술교육의 미래를 위한 연속포럼 '제1차:지역문화예술 교육을 말하다'  일시 : 2013.1.19(토) 오후 2시 장소 : 서울시청 시민청 B2_워크숍룸  지역문화예술의 경과 및 평가  주최 : 문화연대 서울문화예술교육지원센터 주관 : 서울문화예술교육지원센터 참가자 사회 : 이원재(문화연대 사무처장) 기조강연 : 박찬국(미술가 논아트밭아트 디렉터) 발제 : 김종길(경기도미술관 문화교육팀장) 지정토론 : 우상훈(인천문화재단 문화교육팀장) 	   박상혁(서울문화예술교육지원센터 매니저)","","0","0","2012-12-02 00:04:00.0","2013-02-04 11:33:45"
"125","2013 서울예술교육페어 - <달 달 무슨 달>","2013 서울예술교육페어 <달 달 무슨 달>  일시 : 2013.1.17 (목) 1.19(토) 오전 11시 오후 1시 장소 : 서울시청 시민청 B2_바스락홀  내용 서울문화재단 어린이 TA와 공동 개발 제작 및 운영하는 어린이 대상 전문 교육공연 <달 달 무슨 달>은 백제 중국 마야 등 세 나라의 달에 대한 신화와 전설 이야기를 들려주는 공연(연극)을 바탕으로 사전활동(시각) 사후활동(음악 무용)이 통합된 체험형 예술교육 프로그램입니다.","","0","0","2012-12-02 00:04:00.0","2013-02-04 10:57:12"
"128","2013 서울예술교육페어 - <마쯔와 신기한 돌>","2013 서울예술교육페어 <마쯔와 신기한 돌>  일시 : 2013.1.18(금) 오전 11시 오후 1시 장소 : 서울시청 시민청 B2_워크숍룸  내용 처음 한 순간 넓고 너른 바다 한 가운데로 초대합니다. 파도가 신비로이 철썩이다 몸을 스치고 하늘을 고요히 나는 갈매기는 어깨를 스치죠. 거기 바위섬 하나. 그곳으로 순간 이동하며 여러분이 바로 책이 됩니다. 마르쿠스 피스터의 동명 그림책을 활용 생각하는 책?상상하는 책으로 이끌고자 마련한 책공연. 이야기꾼들의 움직임과 해설 아름다운 라이브연주로 관객의 오감을 자극하는 공연을 펼쳐 이야기 속에서 환경의 소중함을 다시 한 번 생각하게 하는 공연이 될 것입니다.","","0","0","2012-12-02 00:04:00.0","2013-02-04 11:16:17"
"123","2013 서울예술교육페어 - 개막식","2013 서울예술교육페어 - 개막식 '서울예술교육 새 꽃망울을 품다'  일시 : 2013.1.17 (목) 오후 1시 장소 : 서울시청 시민청 B1_활짝라운지  축하공연 세종나눔앙상블+꿈나무하모니오케스트라 : 2008년 세종문화회관에서 창단한 순수 시민 아마추어 앙상블 '세종나눔앙상블' 단원들과 어린이로 구성된 '꿈나무하모니오케스트라'의 대표단원들이 함께 나누는 작은 무대  금천고등학교 : 2011~2012년 '서울창의예술 중점운영학교'(서울문화재단 서울특별시교육청 인증)중 하나로 2012년 창의예술교육에 참여한 1학년 11반 학생들의 탭댄스 공연","","0","0","2012-12-02 00:04:00.0","2013-02-04 10:43:51"
"10","'예술교육 파트너데이'","'예술교육 파트너데이'","","0","0","2008-12-08 21:00:00.0","2009-09-30 14:32:00"
"134","2013 서울예술교육페어 - 시민참여 프로그램","2013 서울예술교육페어 - 시민참여 프로그램  일시 : 2013.1.17(목)~19(토) 오전 11시~오후 6시 장소 : 서울시청 시민청 B2_플라자  NNR <나만의 스토리가방>  내용 에코백에 그리기와 실크스크린 기법을 이용해 다양한 색과 이미지를 만들어내고 나만의 이야기를 담아보는 프로그램입니다.  환기미술관 <김환기 작품과 등 만들기>  내용 김환기 작가의 추상작품을 감상하고 작품 감상에 따른 각자의 상상력을 자신만의 작품으로 만들어 봅니다.  뮤지엄교육연구소 <선으로 만드는 조각>  내용 다양한 색 공예철사 및 컬러시트지를 이용해 공간에 대형모빌을 참가자들이 함께 만들고 선으로 조각하는 나만의 작품을 창조합니다.","","0","0","2012-12-02 00:04:00.0","2013-02-04 11:44:10"
"124","2013 서울예술교육페어 - <낱말공장나라>","2013 서울예술교육페어 <낱말공장나라>  일시 : 2013.1.19 (토) 오후 3시 5시 장소 : 서울시청 시민청 B2_바스락홀  내용 '말'에 대한 풍부한 상상력이 가득 묻어나는 책공연. 우리 주변에서 흔히 볼 수 있는 네모난 상자는 이야기꾼들의 손을 거쳐 마을이 되고 상점도 되고 거대한 공장이 되기도 합니다. 아카펠라로 표현하는 다양한 리듬들은 장면마다 생동감을 불어넣습니다. 말에 대한 소중함 그리고 말보다 더 중요한 진실 된 마음을 이야기하는 책공연입니다.","","0","0","2012-12-02 00:04:00.0","2013-02-04 10:52:12"
"137","2013년 사회문화예술교육 <지역특성화 문화예술교육지원사업> 워크숍","- 일시 : 2013. 05. 28.(화) /13:00~18:00  - 장소 : 문학의집 서울 1층 중앙홀  - 대상 : 2013년 사회문화예술교육<지역특성화 문화예술교육지원사업> 운영단체(27개) 전문인력(대표 기확자 강사)  - 목적 : 교육운영 단체별 토의 주제에 맞는 사례를 나누는 특별워크숍으로 문화예술교육 전문인력 간 사업 운영관련 정보교류 확대를 통해 지역사회에서 추구하는 예술교육의 가치와 공감대로 소통하는 자리를 마련하고자 함","","0","0","2012-12-06 00:03:00.0","2013-06-03 09:20:11"
"109","'서울예술교육파트너데이' 행사 현장","'서울예술교육파트너데이' 행사 현장입니다.","","0","0","2009-10-30 21:00:00.0","2010-10-30 21:33:05"
"83","3차 미디어상영회(토우마을상상여행)","‘생각하는 호기심 예술학교’는 어린이들에게 문화와 예술에 대한 꿈을 심어주는 특별 프로그램입니다.   ‘토우마을 상상여행’ 은 2008년 ‘어린이 창의 Arts-TREE’에서 활동하는 전문예술교육가(TA)와 전문지도교수(MTA)의 공동연구 프로젝트(2008년 6~11월 진행)에서 탄생한 공연형식의 통합예술교육 프로그램으로 기존의 예술교육에서 맛볼 수 없었던 창의적인 미적 체험교육입니다.","","0","0","2008-10-31 23:01:00.0","2009-11-11 16:04:32"
"131","2013 서울예술교육페어 - 컨설팅 워크숍 <길>","2013 서울예술교육페어 - 컨설팅 워크숍 <길> '문화예술교육 A to Z'  일시 : 2013.1.17(목) 오전 11시 ~ 오후 6시(입문)          2013.1.18(금) 오후 3시 ~오후 6시(심화) 장소 : 서울시청 시민청 B2_워크숍룸  내용 창의력과 감성을 키우는 문화예술교육 프로그램 어떻게 기획할까? 지속가능한 예술교육 단체로 자리매김하는 방법 과연 무엇일까? 지역 커뮤니티와 소통하는 예술교육가가 되기 위해 무엇을 준비해야할까? 문화예술교육가로서 누구나 한번쯤 해보았을 고민들 한 발 먼저 예술교육의 길을 걸어가고 있는 컨설턴트들의 따뜻한 조언을 통해 사례별 진단과 처방을 드립니다.","","0","0","2012-12-02 00:04:00.0","2013-02-04 11:28:22"
"136","2013 서울예술교육페어 - 시민참여프로그램","2013 서울예술교육페어 - 캔파운데이션 <양진우작가와 함께하는 공공미술>  일시 : 2013.1.17(목)~19(토) 오전 11시~오후 6시 장소 : 서울시청 시민청 B1_활짝라운지  내용 양진우 작가의 작품을 응용 우리가 평소에 관심을 주지 않았던 안내판이 어떤 이야기를 하고 있는지 알아보는 시간을 갖고 자신만의 생각을 표현한 창의적인 안내판을 제작해 보는 프로그램. 기존의 안내판 위에 두꺼운 투명판을 올려놓고 채색도구와 색색의 시트지를 활용해 꾸며봅니다. 완성된 작품은 샹들리에 틀에 고리와 끈을 이용해 직접 설치하도록 합니다.","","0","0","2012-12-02 00:04:00.0","2013-02-04 14:03:36"
"135","2013 서울예술교육페어 - 서울예술교육 홍보부스","2013 서울예술교육페어 - 서울예술교육 홍보부스 <판/PAN>  일시 : 2013.1.18(금)~19(토) 오전 11시~오후 5시 장소 : 서울시청 시민청 B2_태평홀  내용 문화예술교육을 지원 운영하는 기관들과 사업 프로그램을 실행하는 단체들이 모여 2013년 사업계획과 교육정보 아이디어 등을 교환하는 교류와 홍보 기회를 제공하는 '판'입니다. 사전 신청된 서울의 30여 개 공공기관 및 문화예술교육단체가 참여해 2013년 서울지역 문화예술 교육의 방향과 주요 사업들의 정보를 한발 앞서 만날 수 있는 좋은 기회입니다.","","0","0","2012-12-02 00:04:00.0","2013-02-04 11:48:45"
"129","2013 서울예술교육페어 - 서울예술교육포럼","2013 서울예술교육페어 - 서울예술교육포럼 '콜라보레이션 Collaboration'  일시 : 2013.1.17(목) 오후 2시 장소 : 서울시청 시민청 B2_태평홀  내용 지금 문화예술교육은 우리 사회의 많은 영역에 걸쳐 협력을 확대해가며 새로운 역할을 부여받고 있습니다. 문화예술교육과 만나 새로운 가능성이 발현 확장될 수 있는 영역을 탐색해보며 2013년 서울 문화예술교육의 흐름을 전망해보는 이번 포럼은 앞으로의 문화예술교육 10년을 예측할 수 있는 좋은 길잡이가 될 것입니다.","","0","0","2012-12-02 00:04:00.0","2013-02-04 11:20:51"
"130","2013 서울예술교육페어 - 개막 뒤풀이","2013 서울예술교육페어 - 개막 뒤풀이 '극단 목한시와 함께 하는 네트워킹파티'  일시 : 2013.1.17(목) 오후 6시 장소 : 서울시청 시민청 B2_바스락홀","","0","0","2012-12-02 00:04:00.0","2013-02-04 11:23:28"
"108","'서울예술교육파트너데이' 행사 현장","'서울예술교육파트너데이' 행사 현장입니다.","","0","0","2009-10-30 21:00:00.0","2010-10-30 21:31:30"
"72","2차 미디어상영회_생각이 자라는 법","2차 미디어상영회_생각이 자라는 법","","0","0","2008-10-30 22:08:00.0","2009-10-28 14:42:15"
"107","'서울예술교육파트너데이' 행사 현장","'서울예술교육파트너데이' 행사 현장입니다.","","0","0","2009-10-30 21:00:00.0","2010-10-30 21:30:10"
"106","외부 야외마당 케이터링현장입니다.('서울예술교육파트너데이')","외부 야외마당 케이터링현장입니다.('서울예술교육파트너데이')","","0","0","2009-10-30 21:00:00.0","2010-10-30 21:28:29"
"105","외부 야외마당 행사현장입니다.('서울예술교육파트너데이')","외부 야외마당 행사현장입니다.('서울예술교육파트너데이')","","0","0","2009-10-30 21:00:00.0","2010-10-30 21:26:21"
"104","외부 야외마당 행사현장입니다.('서울예술교육파트너데이')","외부 야외마당 행사현장입니다.('서울예술교육파트너데이')","","0","0","2009-10-30 21:00:00.0","2010-10-30 21:23:38"
"126","2013 서울예술교육페어 - <제랄다와 거인>","2013 서울예술교육페어 <제랄다와 거인>  일시 : 2013.1.18 (금) 오후 3시 4시 장소 : 서울시청 시민청 B2_동그라미방  내용 작은 테이블에서 펼쳐지는 인형극으로 다양한 크기의 종이컵을 이용한 거인과 아이를 표현하고 마임을 통해 재미난 상상의 세계로 초대합니다.","","0","0","2012-12-02 00:04:00.0","2013-02-04 11:03:44"
"113","'서울예술교육파트너데이' 행사 현장","'서울예술교육파트너데이' 행사 현장","","0","0","2009-10-30 21:00:00.0","2010-10-30 21:41:03"
"110","'서울예술교육파트너데이' 행사 현장","'서울예술교육파트너데이' 행사 현장","","0","0","2009-10-30 21:00:00.0","2010-10-30 21:34:21"
"58","1차 미디어 상영회_초등생활보고서_차별","1차 미디어 상영회_초등생활보고서_차별","","0","0","2008-10-30 23:04:00.0","2009-10-17 23:30:57"
"17","남산예술센터 예술교육정보자료관","남산예술센터 예술교육정보자료관","","0","0","2008-12-08 21:00:00.0","2009-09-30 14:45:27"
"114","'꿈꾸는 청춘예술대학' 어르신들과 함께한 예술교육파트너데이~","이번 예술교육파트너데이에 '꿈꾸는 청춘예술대학' 어르신들이 참석해주셨습니다.  꿈청 까페에 글도 올려주셨네요 소중한 글과 사진 감사힙니다. ^^    초청해주셔서 너무고마워요  너무 즐거운 밤이였어요. 음식도 맛있게 먹었고요   모든 행사에 초청해주세요 좋은 프로그램 영화 연극 대열에 함류할수있게 지도해주세요.?    최선을 다 하?읍니다.   어제밤 사진올려드릴게요.     강 재수  배상","","138","0","2009-11-01 00:02:00.0","2010-11-02 09:59:38"
"103","예술교육관련 영상상영 현장 ('서울예술교육파트너데이')","'서울예술교육파트너데이' 예술교육관련 영상상영 현장입니다.","","0","0","2009-10-30 21:00:00.0","2010-10-30 20:44:16"
"64","","이날 영상을 보고..요즘 기분이 최고라고 말하는 석재를 보면서 긍정적인 결론을 보게되어 참 다행이다 싶었는데 사실 영상을 보는내내 조마조마 하고 불안했었다. 반 아이들이 차별이라는 것에 대해 깨닫게 되고 반성하게 되는 과정조차도 어쩌면 너무 폭력적인 방법이 아닌가 하는 우려에서다. 해결방법이라고 제시된 실험이 직접적이고 빠른 결론을 이끌어 낼 수 있을지는 몰라도 그 과정에서 아이들이 상처받고 느끼지 않아도 될 좌절감을 느끼게 되는 것에 또다른 우려를 갖는다. 결국 석재를 편견으로 대하고 차별했던 아이들에게 역할 바꾸기 차별실험을 통해 석재의 입장을 이해하고 느껴보게 하고 반성하게 하는 과정인데 위험할 수도 있다는 생각이 들었다. 얼마든지 긍정적인 방법으로 아이들에게 서로의 강점을 발견하게 하고 아이들간의 물리적인 거리를 좁힐 수 있을텐데..가령 청소를 잘하는 석재 덕분에 교실이 이렇게 깨끗하다고 칭찬하거나 키가크고 체격이 좋은 석재의 강점을  체육시간 줄다리기등을 통해 발휘할 수 있도록 해준다면 석재의 팀은 석재를 대하는 시선이 달라졌을것이다. 영상회를 다녀와서 다음날 편견이라는 주제로 상황극을 만들어 보았다. '작은고추가 맵다' 라는 속담주제의 뜻을 이해하고 일상생활에서 이 속담을 비유할 수 있는 일들을 드라마로 만들었다. 재미있는 주제들이 많이 나왔다. 키가커서 좋은점 키가 커서 나쁜점 키가 작아서 좋거나 나쁜점에 대해서도 토론을 하고 각각 상황극으로 만들어 발표를 했는데 의외로 키가 작아서 좋은 이유에 대한 이야기가 많이 나왔고 작다고 무시하고 왕따를 시키거나 해서는 안되겠다는 결론까지 아이들에게서 스스로 이끌어내었다. 재미있었던 주제 몇가지..키가크면 바지를 살때마다 줄이지 않아도 되지만 남자들은 아담한 여자를 더 좋아한다. 키가크면 친구들 사이에서 늘 언니역할을 해야되서 싫고 같은 잘못을 해도 눈에 띤다. 교실에서 힘쓰는 일은 도맡아 심부름 한다등..반대로 키가 작으면 놀림을 당하거나 왕따를 당하기도 하지만 귀엽다 잘못을 해도 선생님이 잘봐주신다 좁은 곳에 들어간 공을 꺼내올 수 있다. 술레잡기 할때나 얼음땡 놀이를 할때 재빨라서 잘 안잡힌다^^~등등..결론은 키가 큰 친구들과 작은 친구가 함께 친하게 지내면 높은 곳에 올라간 물건은 큰 친구가 내려주고 침대밑으로 들어간 물건을 꺼내는건 작은 아이들 하는 식으로 역할 분담을 하고 서로에게 도움이 되는 사이가 되는 상황극을 만들면서 아이들은 서로의 단점을 강점으로 발견해주고 인정해주는 시간을 가졌다.","","0","0","2008-10-30 23:07:00.0",""
"101","선아트스페이스 무료 공개강좌","아카데미 선그림에서  2010 5월 28~30일까지 3일간 무료 공개 강좌를 시행하였다","www.zenart.com","237","282","2009-12-06 00:02:00.0","2010-06-02 05:03:42"
"111","'서울예술교육파트너데이' 행사 현장","'서울예술교육파트너데이' 행사 현장","","0","0","2009-10-30 21:00:00.0","2010-10-30 21:35:57"
"94","4차 미디어 상영회","제 4차 서울문화예술교육지원센터 전문미디어 상영회  11/24 MBC다큐 열다섯 살 꿈의 교실 '꼴지라도 괜찮아'","","0","0","2008-10-31 22:05:00.0","2009-11-25 14:21:53"